{
    "docs": [
        {
            "id": 4860116,
            "name": "Претенденты",
            "alternativeName": "Challengers",
            "type": "movie",
            "year": 2024,
            "description": "2019 год. Теннисист Арт Дональдсон переживает не лучший период в карьере, поэтому, чтобы поднять его моральный дух и укрепить веру в себя, его жена и по совместительству тренер Таши предлагает принять участие в турнире серии ATP Challenger. В прошлом она сама была многообещающей спортсменкой, но не смогла восстановиться после травмы колена, и теперь все силы вкладывает в мужа. В финале Арт выходит на бывшего парня Таши и некогда своего лучшего друга Патрика Цвейга, для которого победа тоже становится делом принципа.",
            "poster": {
                "url": "https://image.openmoviedb.com/kinopoisk-images/10900341/4b32b6df-4e24-4b3f-a62b-c444824ed39a/orig",
                "previewUrl": "https://image.openmoviedb.com/kinopoisk-images/10900341/4b32b6df-4e24-4b3f-a62b-c444824ed39a/x1000"
            },
            "rating": {
                "kp": 7.068,
                "imdb": 7.3
            },
            "genres": [
                {
                    "name": "драма"
                },
                {
                    "name": "мелодрама"
                },
                {
                    "name": "спорт"
                }
            ],
            "releaseYears": []
        }
    ],
    "total": 15,
    "limit": 10,
    "page": 1,
    "pages": 2
}